%YAML 1.1
%TAG !u! tag:unity3d.com,2011:
--- !u!114 &11400000
MonoBehaviour:
  m_ObjectHideFlags: 0
  m_CorrespondingSourceObject: {fileID: 0}
  m_PrefabInstance: {fileID: 0}
  m_PrefabAsset: {fileID: 0}
  m_GameObject: {fileID: 0}
  m_Enabled: 1
  m_EditorHideFlags: 0
  m_Script: {fileID: -1893448595, guid: a040fb66244a7f54289914d98ea4ef7d, type: 3}
  m_Name: MovementInput
  m_EditorClassIdentifier: 
  _data:
    _json: '{"graph":{"variables":{"collection":{"$content":[],"$version":"A"},"$version":"A"},"controlInputDefinitions":[],"controlOutputDefinitions":[],"valueInputDefinitions":[],"valueOutputDefinitions":[],"title":"Key
      Input","summary":null,"pan":{"x":-1208.754,"y":1275.488},"zoom":1.0,"elements":[{"coroutine":false,"defaultValues":{},"position":{"x":-699.0,"y":-120.0},"guid":"c1a6a1a6-98b3-48a1-abb8-12b25bd4d96d","$version":"A","$type":"Bolt.Update","$id":"9"},{"defaultValues":{},"position":{"x":2824.0,"y":1354.0},"guid":"5a22a59f-cd82-4d49-af29-4c349a8a9f02","$version":"A","$type":"Bolt.GenericMultiply","$id":"11"},{"member":{"name":"deltaTime","parameterTypes":null,"targetType":"UnityEngine.Time","targetTypeName":"UnityEngine.Time","$version":"A"},"defaultValues":{},"position":{"x":2499.0,"y":1490.0},"guid":"ded69f33-c415-4d3a-b790-4270de2eec37","$version":"A","$type":"Bolt.GetMember","$id":"13"},{"member":{"name":"deltaTime","parameterTypes":null,"targetType":"UnityEngine.Time","targetTypeName":"UnityEngine.Time","$version":"A"},"defaultValues":{},"position":{"x":-267.0,"y":704.0},"guid":"310a68aa-8183-4df6-a66f-943f3941bc68","$version":"A","$type":"Bolt.GetMember","$id":"16"},{"chainable":false,"member":{"name":"Translate","parameterTypes":["UnityEngine.Vector3"],"targetType":"UnityEngine.Transform","targetTypeName":"UnityEngine.Transform","$version":"A"},"defaultValues":{"target":null,"%translation":{"x":0.0,"y":0.0,"z":0.0,"$type":"UnityEngine.Vector3"}},"position":{"x":2958.0,"y":1219.0},"guid":"4aac8deb-f98f-4f1a-acf6-4d589fa0cd95","$version":"A","$type":"Bolt.InvokeMember","$id":"19"},{"defaultValues":{"b":{"$content":1.0,"$type":"System.Single"}},"position":{"x":1349.0,"y":1288.0},"guid":"c57906f5-da5e-40be-95cd-a68e1eec6bb6","$version":"A","$type":"Bolt.ScalarMultiply","$id":"22"},{"defaultValues":{"b":{"$content":1.0,"$type":"System.Single"}},"position":{"x":1382.0,"y":707.0},"guid":"78c57092-4806-4078-8c7c-cda163556894","$version":"A","$type":"Bolt.ScalarMultiply","$id":"24"},{"defaultValues":{"b":{"$content":1.0,"$type":"System.Single"}},"position":{"x":22.0,"y":683.0},"guid":"7f436d78-0537-46e6-abaf-4afa7ab10ddc","$version":"A","$type":"Bolt.ScalarMultiply","$id":"26"},{"defaultValues":{},"position":{"x":177.0,"y":585.0},"guid":"e24a20cd-e9c0-4093-bd43-38ec36ca5402","$version":"A","$type":"Bolt.GenericMultiply","$id":"28"},{"chainable":false,"member":{"name":"GetKey","parameterTypes":["UnityEngine.KeyCode"],"targetType":"UnityEngine.Input","targetTypeName":"UnityEngine.Input","$version":"A"},"defaultValues":{"%key":{"$content":"S","$type":"UnityEngine.KeyCode"}},"position":{"x":878.0,"y":623.0},"guid":"05c64ed5-7b30-435f-9fcc-909a07d22ea6","$version":"A","$type":"Bolt.InvokeMember","$id":"30"},{"member":{"name":"back","parameterTypes":null,"targetType":"UnityEngine.Vector3","targetTypeName":"UnityEngine.Vector3","$version":"A"},"defaultValues":{},"position":{"x":1313.0,"y":1177.0},"guid":"5a53ca92-38a4-4ef3-9cdb-46eda012111c","$version":"A","$type":"Bolt.GetMember","$id":"33"},{"specifyFallback":false,"kind":"Object","defaultValues":{"name":{"$content":"Speed","$type":"System.String"},"object":null},"position":{"x":2495.0,"y":1356.0},"guid":"388a2aa4-27af-473a-bf95-fa9f9f963b02","$version":"A","$type":"Bolt.GetVariable","$id":"36"},{"defaultValues":{"b":{"$content":1.0,"$type":"System.Single"}},"position":{"x":2684.0,"y":1467.0},"guid":"c40af8b4-249d-4b5f-b80c-dc1a43a4a5a1","$version":"A","$type":"Bolt.ScalarMultiply","$id":"38"},{"defaultValues":{},"position":{"x":1522.0,"y":594.0},"guid":"6d152226-2209-457d-91af-0dc0756717d9","$version":"A","$type":"Bolt.GenericMultiply","$id":"40"},{"defaultValues":{},"position":{"x":2328.0,"y":1224.0},"guid":"fea85559-a708-4837-acf9-f04a6118c773","$version":"A","$type":"Bolt.Branch","$id":"42"},{"member":{"name":"deltaTime","parameterTypes":null,"targetType":"UnityEngine.Time","targetTypeName":"UnityEngine.Time","$version":"A"},"defaultValues":{},"position":{"x":1197.0,"y":730.0},"guid":"ff18d66a-d2b2-427e-ad9f-39c694d21e8f","$version":"A","$type":"Bolt.GetMember","$id":"44"},{"coroutine":false,"defaultValues":{},"position":{"x":-1782.0,"y":1188.0},"guid":"28d9a260-4bab-4043-a4c6-c964fcead22f","$version":"A","$type":"Bolt.Update","$id":"47"},{"kind":"Object","defaultValues":{"name":{"$content":"AngularSpeed","$type":"System.String"},"object":null},"position":{"x":-1548.0,"y":1174.0},"guid":"08335841-52cb-4d1f-8401-9d54e5ea36c6","$version":"A","$type":"Bolt.SetVariable","$id":"49"},{"chainable":false,"member":{"name":"GetAxisRaw","parameterTypes":["System.String"],"targetType":"UnityEngine.Input","targetTypeName":"UnityEngine.Input","$version":"A"},"defaultValues":{"%axisName":{"$content":"\"Horizontal\"","$type":"System.String"}},"position":{"x":-1781.0,"y":1297.0},"guid":"0533aede-c190-42cf-85eb-a84ecfc2b467","$version":"A","$type":"Bolt.InvokeMember","$id":"51"},{"member":{"name":"up","parameterTypes":null,"targetType":"UnityEngine.Vector3","targetTypeName":"UnityEngine.Vector3","$version":"A"},"defaultValues":{},"position":{"x":2671.0,"y":1353.0},"guid":"e1badd40-d58b-46e6-b084-1709f2543150","$version":"A","$type":"Bolt.GetMember","$id":"54"},{"chainable":false,"member":{"name":"Rotate","parameterTypes":["UnityEngine.Vector3"],"targetType":"UnityEngine.Transform","targetTypeName":"UnityEngine.Transform","$version":"A"},"defaultValues":{"target":null,"%eulers":{"x":0.0,"y":0.0,"z":0.0,"$type":"UnityEngine.Vector3"}},"position":{"x":315.0,"y":383.0},"guid":"4ffba0a0-5efc-4b58-82cf-de879e97d5a0","$version":"A","$type":"Bolt.InvokeMember","$id":"57"},{"member":{"name":"up","parameterTypes":null,"targetType":"UnityEngine.Vector3","targetTypeName":"UnityEngine.Vector3","$version":"A"},"defaultValues":{},"position":{"x":33.0,"y":534.0},"guid":"741c89e1-1556-4ce1-a006-96d97fb1e9d6","$version":"A","$type":"Bolt.GetMember","$id":"60"},{"defaultValues":{},"position":{"x":1485.0,"y":1177.0},"guid":"b84614a7-0189-4be8-8639-5a5f89eb3f14","$version":"A","$type":"Bolt.GenericMultiply","$id":"63"},{"member":{"name":"forward","parameterTypes":null,"targetType":"UnityEngine.Vector3","targetTypeName":"UnityEngine.Vector3","$version":"A"},"defaultValues":{},"position":{"x":1362.0,"y":596.0},"guid":"f6de03ac-68e8-4e69-bf91-9ffeaea1e590","$version":"A","$type":"Bolt.GetMember","$id":"65"},{"specifyFallback":false,"kind":"Object","defaultValues":{"name":{"$content":"Speed","$type":"System.String"},"object":null},"position":{"x":1193.0,"y":596.0},"guid":"7b653e17-bd68-4c48-89fe-1bd63184de3e","$version":"A","$type":"Bolt.GetVariable","$id":"68"},{"specifyFallback":false,"kind":"Object","defaultValues":{"name":{"$content":"Speed","$type":"System.String"},"object":null},"position":{"x":1137.0,"y":1184.0},"guid":"dcf8c3b9-e4df-4782-b5a1-3f954922e82f","$version":"A","$type":"Bolt.GetVariable","$id":"70"},{"defaultValues":{},"position":{"x":1157.0,"y":1038.0},"guid":"eeb0c799-1b19-49fd-8b62-eb76de697b88","$version":"A","$type":"Bolt.Branch","$id":"72"},{"chainable":false,"member":{"name":"GetKey","parameterTypes":["UnityEngine.KeyCode"],"targetType":"UnityEngine.Input","targetTypeName":"UnityEngine.Input","$version":"A"},"defaultValues":{"%key":{"$content":"W","$type":"UnityEngine.KeyCode"}},"position":{"x":922.0,"y":1039.0},"guid":"51b3e9aa-29e9-461a-af0b-37d5ed4c35a6","$version":"A","$type":"Bolt.InvokeMember","$id":"74"},{"specifyFallback":false,"kind":"Object","defaultValues":{"name":{"$content":"AngularSpeed","$type":"System.String"},"object":null},"position":{"x":-272.0,"y":576.0},"guid":"1381d082-1f5b-430e-87a6-5ad3f27ac155","$version":"A","$type":"Bolt.GetVariable","$id":"77"},{"defaultValues":{"minuend":{"$content":0.0,"$type":"System.Single"},"subtrahend":{"$content":1.0,"$type":"System.Single"}},"position":{"x":-161.0,"y":8.0},"guid":"83ffcc0f-f8e6-486c-ade1-fe0c43a55f9b","$version":"A","$type":"Bolt.ScalarSubtract","$id":"79"},{"chainable":false,"member":{"name":"Translate","parameterTypes":["UnityEngine.Vector3"],"targetType":"UnityEngine.Transform","targetTypeName":"UnityEngine.Transform","$version":"A"},"defaultValues":{"target":null,"%translation":{"x":0.0,"y":0.0,"z":0.0,"$type":"UnityEngine.Vector3"}},"position":{"x":1667.0,"y":1029.0},"guid":"a79a1692-20c2-4f45-b0f6-96948ffebbf7","$version":"A","$type":"Bolt.InvokeMember","$id":"81"},{"member":{"name":"deltaTime","parameterTypes":null,"targetType":"UnityEngine.Time","targetTypeName":"UnityEngine.Time","$version":"A"},"defaultValues":{},"position":{"x":-180.0,"y":143.0},"guid":"74c585dd-7ebb-4d9c-966f-d4d02fd34478","$version":"A","$type":"Bolt.GetMember","$id":"84"},{"chainable":false,"member":{"name":"GetKey","parameterTypes":["UnityEngine.KeyCode"],"targetType":"UnityEngine.Input","targetTypeName":"UnityEngine.Input","$version":"A"},"defaultValues":{"%key":{"$content":"D","$type":"UnityEngine.KeyCode"}},"position":{"x":-553.0,"y":594.0},"guid":"c7706ce7-2ec3-48a0-b226-778dd688d43f","$version":"A","$type":"Bolt.InvokeMember","$id":"87"},{"chainable":false,"member":{"name":"Translate","parameterTypes":["UnityEngine.Vector3"],"targetType":"UnityEngine.Transform","targetTypeName":"UnityEngine.Transform","$version":"A"},"defaultValues":{"target":null,"%translation":{"x":0.0,"y":0.0,"z":0.0,"$type":"UnityEngine.Vector3"}},"position":{"x":1656.0,"y":459.0},"guid":"7f5aa34a-3e0b-4f4a-b618-8de41def357d","$version":"A","$type":"Bolt.InvokeMember","$id":"90"},{"member":{"name":"deltaTime","parameterTypes":null,"targetType":"UnityEngine.Time","targetTypeName":"UnityEngine.Time","$version":"A"},"defaultValues":{},"position":{"x":1137.0,"y":1313.0},"guid":"73346ecd-2970-45b4-92e9-0cdf84724b20","$version":"A","$type":"Bolt.GetMember","$id":"93"},{"defaultValues":{},"position":{"x":152.0,"y":20.0},"guid":"7b5db343-77b1-4ee2-95c1-76bd6a0ac4a3","$version":"A","$type":"Bolt.GenericMultiply","$id":"96"},{"defaultValues":{"b":{"$content":1.0,"$type":"System.Single"}},"position":{"x":11.0,"y":121.0},"guid":"120efb97-bc47-4314-9cfe-0a0c50aedfc8","$version":"A","$type":"Bolt.ScalarMultiply","$id":"98"},{"defaultValues":{},"position":{"x":1026.0,"y":464.0},"guid":"4266abc9-492e-412a-8f03-af51e40952b1","$version":"A","$type":"Bolt.Branch","$id":"100"},{"chainable":false,"member":{"name":"GetKey","parameterTypes":["UnityEngine.KeyCode"],"targetType":"UnityEngine.Input","targetTypeName":"UnityEngine.Input","$version":"A"},"defaultValues":{"%key":{"$content":"A","$type":"UnityEngine.KeyCode"}},"position":{"x":-694.0,"y":7.0},"guid":"49887077-ead3-47ee-9c62-03bd2055f94f","$version":"A","$type":"Bolt.InvokeMember","$id":"102"},{"member":{"name":"up","parameterTypes":null,"targetType":"UnityEngine.Vector3","targetTypeName":"UnityEngine.Vector3","$version":"A"},"defaultValues":{},"position":{"x":11.0,"y":-13.0},"guid":"3e21c0f2-6090-4eef-b6d6-2025978cf41f","$version":"A","$type":"Bolt.GetMember","$id":"105"},{"chainable":false,"member":{"name":"GetKey","parameterTypes":["UnityEngine.KeyCode"],"targetType":"UnityEngine.Input","targetTypeName":"UnityEngine.Input","$version":"A"},"defaultValues":{"%key":{"$content":"Space","$type":"UnityEngine.KeyCode"}},"position":{"x":2180.0,"y":1383.0},"guid":"df0522e6-22a3-472b-9d1d-ab091a6939b1","$version":"A","$type":"Bolt.InvokeMember","$id":"108"},{"defaultValues":{},"position":{"x":-408.0,"y":435.0},"guid":"21a7b055-cace-48b9-ab53-671b973df16a","$version":"A","$type":"Bolt.Branch","$id":"111"},{"defaultValues":{},"position":{"x":-542.0,"y":-120.0},"guid":"48e26e85-32f2-4b71-8b6e-aeacc9b164a2","$version":"A","$type":"Bolt.Branch","$id":"113"},{"chainable":false,"member":{"name":"Rotate","parameterTypes":["UnityEngine.Vector3"],"targetType":"UnityEngine.Transform","targetTypeName":"UnityEngine.Transform","$version":"A"},"defaultValues":{"target":null,"%eulers":{"x":0.0,"y":0.0,"z":0.0,"$type":"UnityEngine.Vector3"}},"position":{"x":293.0,"y":-122.0},"guid":"b7184ff2-c6fe-4f62-8382-2db24539cb16","$version":"A","$type":"Bolt.InvokeMember","$id":"115"},{"specifyFallback":false,"kind":"Object","defaultValues":{"name":{"$content":"AngularSpeed","$type":"System.String"},"object":null},"position":{"x":-369.0,"y":129.0},"guid":"87843717-9aba-4191-a70e-4dbc3f1e51c9","$version":"A","$type":"Bolt.GetVariable","$id":"118"},{"chainable":false,"member":{"name":".ctor","parameterTypes":["System.Single","System.Single","System.Single"],"targetType":"UnityEngine.Vector3","targetTypeName":"UnityEngine.Vector3","$version":"A"},"defaultValues":{"%x":{"$content":0.0,"$type":"System.Single"},"%y":{"$content":0.0,"$type":"System.Single"},"%z":{"$content":0.0,"$type":"System.Single"}},"position":{"x":-1542.0,"y":1454.0},"guid":"fe9df06a-812e-45b2-8051-70e2cbfbd5e7","$version":"A","$type":"Bolt.InvokeMember"},{"defaultValues":{"b":{"$content":1.0,"$type":"System.Single"}},"position":{"x":-1203.0,"y":1200.0},"guid":"33327403-9be2-45d3-a17b-de711b61a964","$version":"A","$type":"Bolt.ScalarMultiply"},{"sourceUnit":{"$ref":"113"},"sourceKey":"ifFalse","destinationUnit":{"$ref":"111"},"destinationKey":"enter","guid":"71a3c2ae-5f86-4334-9c5b-cba3e0691dab","$type":"Bolt.ControlConnection"},{"sourceUnit":{"$ref":"100"},"sourceKey":"ifFalse","destinationUnit":{"$ref":"72"},"destinationKey":"enter","guid":"d812a366-3982-419e-8fea-098d63cfe171","$type":"Bolt.ControlConnection"},{"sourceUnit":{"$ref":"100"},"sourceKey":"ifTrue","destinationUnit":{"$ref":"90"},"destinationKey":"enter","guid":"a54b89ca-fdf7-495e-9944-6049dd26eafa","$type":"Bolt.ControlConnection"},{"sourceUnit":{"$ref":"115"},"sourceKey":"exit","destinationUnit":{"$ref":"100"},"destinationKey":"enter","guid":"e1fce558-d68a-4c5d-beee-ed02a24bf002","$type":"Bolt.ControlConnection"},{"sourceUnit":{"$ref":"90"},"sourceKey":"exit","destinationUnit":{"$ref":"42"},"destinationKey":"enter","guid":"92c6fd5f-37c4-44f6-b830-a2dff60f0b88","$type":"Bolt.ControlConnection"},{"sourceUnit":{"$ref":"81"},"sourceKey":"exit","destinationUnit":{"$ref":"42"},"destinationKey":"enter","guid":"b722e626-71e7-47f0-b7af-97cfea2cba7e","$type":"Bolt.ControlConnection"},{"sourceUnit":{"$ref":"72"},"sourceKey":"ifFalse","destinationUnit":{"$ref":"42"},"destinationKey":"enter","guid":"175d5d4d-0946-4fc2-93e7-3e738a42a1bc","$type":"Bolt.ControlConnection"},{"sourceUnit":{"$ref":"72"},"sourceKey":"ifTrue","destinationUnit":{"$ref":"81"},"destinationKey":"enter","guid":"81a7277f-f57d-42b0-ad7f-49e76315cf6f","$type":"Bolt.ControlConnection"},{"sourceUnit":{"$ref":"111"},"sourceKey":"ifFalse","destinationUnit":{"$ref":"100"},"destinationKey":"enter","guid":"681fd5ba-a3bc-49bf-9ea1-f1e5ca6894e3","$type":"Bolt.ControlConnection"},{"sourceUnit":{"$ref":"111"},"sourceKey":"ifTrue","destinationUnit":{"$ref":"57"},"destinationKey":"enter","guid":"3de4d10e-e1aa-4a39-9153-adea6a62be82","$type":"Bolt.ControlConnection"},{"sourceUnit":{"$ref":"9"},"sourceKey":"trigger","destinationUnit":{"$ref":"113"},"destinationKey":"enter","guid":"996632ce-38d3-4bf4-ad5e-7fc47d709a71","$type":"Bolt.ControlConnection"},{"sourceUnit":{"$ref":"57"},"sourceKey":"exit","destinationUnit":{"$ref":"100"},"destinationKey":"enter","guid":"6be51b16-7a34-4191-9f7c-9ccb5514ff8c","$type":"Bolt.ControlConnection"},{"sourceUnit":{"$ref":"47"},"sourceKey":"trigger","destinationUnit":{"$ref":"49"},"destinationKey":"assign","guid":"cd1c88cb-abae-4c99-aac2-833d0921af09","$type":"Bolt.ControlConnection"},{"sourceUnit":{"$ref":"113"},"sourceKey":"ifTrue","destinationUnit":{"$ref":"115"},"destinationKey":"enter","guid":"276c70bf-4376-4a16-a48d-5551982fa6f7","$type":"Bolt.ControlConnection"},{"sourceUnit":{"$ref":"42"},"sourceKey":"ifTrue","destinationUnit":{"$ref":"19"},"destinationKey":"enter","guid":"35b942f0-a549-4d9a-b34d-45071fc4e121","$type":"Bolt.ControlConnection"},{"sourceUnit":{"$ref":"105"},"sourceKey":"value","destinationUnit":{"$ref":"96"},"destinationKey":"a","guid":"40bf9814-b106-48a0-9c1e-ee8f5d5e3718","$type":"Bolt.ValueConnection"},{"sourceUnit":{"$ref":"30"},"sourceKey":"result","destinationUnit":{"$ref":"100"},"destinationKey":"condition","guid":"95a7b64d-5019-47f0-8626-0f0baa312ee9","$type":"Bolt.ValueConnection"},{"sourceUnit":{"$ref":"68"},"sourceKey":"value","destinationUnit":{"$ref":"24"},"destinationKey":"a","guid":"76240a1c-484d-4553-a52b-b808cec1f288","$type":"Bolt.ValueConnection"},{"sourceUnit":{"$ref":"74"},"sourceKey":"result","destinationUnit":{"$ref":"72"},"destinationKey":"condition","guid":"1bcbd0e7-72e0-477d-86e2-3864ffacd5c8","$type":"Bolt.ValueConnection"},{"sourceUnit":{"$ref":"84"},"sourceKey":"value","destinationUnit":{"$ref":"98"},"destinationKey":"b","guid":"fedd3d60-929b-4bce-baff-6b2e8fb8134d","$type":"Bolt.ValueConnection"},{"sourceUnit":{"$ref":"93"},"sourceKey":"value","destinationUnit":{"$ref":"22"},"destinationKey":"b","guid":"d5fa620a-f892-4ebb-a841-554ea6608d6c","$type":"Bolt.ValueConnection"},{"sourceUnit":{"$ref":"28"},"sourceKey":"product","destinationUnit":{"$ref":"57"},"destinationKey":"%eulers","guid":"9823ed81-cb29-47eb-bb5d-94338e7640ed","$type":"Bolt.ValueConnection"},{"sourceUnit":{"$ref":"102"},"sourceKey":"result","destinationUnit":{"$ref":"113"},"destinationKey":"condition","guid":"4f4f8f00-ce7f-4564-9eba-afb8b9f29495","$type":"Bolt.ValueConnection"},{"sourceUnit":{"$ref":"38"},"sourceKey":"product","destinationUnit":{"$ref":"11"},"destinationKey":"b","guid":"d56255dc-ca4e-4dfb-823d-c404c16e8c0c","$type":"Bolt.ValueConnection"},{"sourceUnit":{"$ref":"96"},"sourceKey":"product","destinationUnit":{"$ref":"115"},"destinationKey":"%eulers","guid":"b23586a0-9c69-4177-9c60-6f677f1dfd5c","$type":"Bolt.ValueConnection"},{"sourceUnit":{"$ref":"65"},"sourceKey":"value","destinationUnit":{"$ref":"40"},"destinationKey":"a","guid":"4ff515f3-c1d0-4547-8630-102a75bd66a2","$type":"Bolt.ValueConnection"},{"sourceUnit":{"$ref":"87"},"sourceKey":"result","destinationUnit":{"$ref":"111"},"destinationKey":"condition","guid":"a96edd10-120b-49f4-9ad8-f1c8ddf1f494","$type":"Bolt.ValueConnection"},{"sourceUnit":{"$ref":"118"},"sourceKey":"value","destinationUnit":{"$ref":"79"},"destinationKey":"subtrahend","guid":"4434bfb2-2177-41ee-a052-ba8b451d68a9","$type":"Bolt.ValueConnection"},{"sourceUnit":{"$ref":"36"},"sourceKey":"value","destinationUnit":{"$ref":"38"},"destinationKey":"a","guid":"7e7ecc02-874d-4720-b057-ca1f1215b183","$type":"Bolt.ValueConnection"},{"sourceUnit":{"$ref":"98"},"sourceKey":"product","destinationUnit":{"$ref":"96"},"destinationKey":"b","guid":"bff3b88f-02a1-45f2-93aa-8ab2d9311281","$type":"Bolt.ValueConnection"},{"sourceUnit":{"$ref":"33"},"sourceKey":"value","destinationUnit":{"$ref":"63"},"destinationKey":"a","guid":"589bdfa2-be8e-4a93-acaa-ff12405c9712","$type":"Bolt.ValueConnection"},{"sourceUnit":{"$ref":"79"},"sourceKey":"difference","destinationUnit":{"$ref":"98"},"destinationKey":"a","guid":"3d5e59ac-a3a6-417a-9c2c-c756047c0349","$type":"Bolt.ValueConnection"},{"sourceUnit":{"$ref":"51"},"sourceKey":"result","destinationUnit":{"$ref":"49"},"destinationKey":"input","guid":"f24ebcb6-2884-4311-ac82-84a141c74f3f","$type":"Bolt.ValueConnection"},{"sourceUnit":{"$ref":"60"},"sourceKey":"value","destinationUnit":{"$ref":"28"},"destinationKey":"a","guid":"66ecb137-fdf3-4663-b095-4edc3e5c6090","$type":"Bolt.ValueConnection"},{"sourceUnit":{"$ref":"70"},"sourceKey":"value","destinationUnit":{"$ref":"22"},"destinationKey":"a","guid":"5f024936-26bf-4cc9-9c43-3a294430ee4b","$type":"Bolt.ValueConnection"},{"sourceUnit":{"$ref":"13"},"sourceKey":"value","destinationUnit":{"$ref":"38"},"destinationKey":"b","guid":"c2ea65b9-de05-42b0-b51c-5bcad550366d","$type":"Bolt.ValueConnection"},{"sourceUnit":{"$ref":"11"},"sourceKey":"product","destinationUnit":{"$ref":"19"},"destinationKey":"%translation","guid":"26c2dcf8-712f-43a6-b8f6-66163c574b34","$type":"Bolt.ValueConnection"},{"sourceUnit":{"$ref":"16"},"sourceKey":"value","destinationUnit":{"$ref":"26"},"destinationKey":"b","guid":"81bbd9fc-23ff-47c6-afbf-e99abb8634f3","$type":"Bolt.ValueConnection"},{"sourceUnit":{"$ref":"24"},"sourceKey":"product","destinationUnit":{"$ref":"40"},"destinationKey":"b","guid":"bc43d314-2d83-4a6f-af5f-de5eeb9be26f","$type":"Bolt.ValueConnection"},{"sourceUnit":{"$ref":"77"},"sourceKey":"value","destinationUnit":{"$ref":"26"},"destinationKey":"a","guid":"960dd71f-b16d-4164-a90c-8508c4e1ad87","$type":"Bolt.ValueConnection"},{"sourceUnit":{"$ref":"108"},"sourceKey":"result","destinationUnit":{"$ref":"42"},"destinationKey":"condition","guid":"4a04e922-04a8-42e0-878c-223b36e87469","$type":"Bolt.ValueConnection"},{"sourceUnit":{"$ref":"22"},"sourceKey":"product","destinationUnit":{"$ref":"63"},"destinationKey":"b","guid":"1148620e-f272-4fb2-a7b0-f3fcaf5d0c6a","$type":"Bolt.ValueConnection"},{"sourceUnit":{"$ref":"44"},"sourceKey":"value","destinationUnit":{"$ref":"24"},"destinationKey":"b","guid":"e6b7d247-88bd-442d-b82f-7fc34348af9e","$type":"Bolt.ValueConnection"},{"sourceUnit":{"$ref":"40"},"sourceKey":"product","destinationUnit":{"$ref":"90"},"destinationKey":"%translation","guid":"2ed7330d-e2bc-4ba2-9ea9-186b55acd5b9","$type":"Bolt.ValueConnection"},{"sourceUnit":{"$ref":"26"},"sourceKey":"product","destinationUnit":{"$ref":"28"},"destinationKey":"b","guid":"408113ce-6e21-4cbb-990e-9d56bcc35fec","$type":"Bolt.ValueConnection"},{"sourceUnit":{"$ref":"54"},"sourceKey":"value","destinationUnit":{"$ref":"11"},"destinationKey":"a","guid":"cd51b18f-18fd-4881-97e1-ca9756748872","$type":"Bolt.ValueConnection"},{"sourceUnit":{"$ref":"63"},"sourceKey":"product","destinationUnit":{"$ref":"81"},"destinationKey":"%translation","guid":"d4ffeef2-313e-42ac-ab11-2e63ec225af0","$type":"Bolt.ValueConnection"},{"position":{"xMin":-720.0,"yMin":331.0,"xMax":512.0,"yMax":840.0},"label":"D","comment":null,"color":{"r":0.0,"g":0.0,"b":0.0,"a":1.0},"guid":"d0d2c436-941d-48da-a1a4-78ea2ebbc706","$version":"A","$type":"Ludiq.GraphGroup"},{"position":{"xMin":592.0,"yMin":407.0,"xMax":1837.0,"yMax":877.0},"label":"S","comment":null,"color":{"r":0.0,"g":0.0,"b":0.0,"a":1.0},"guid":"f901a3d7-9025-4d67-ac7a-66cab99d5899","$version":"A","$type":"Ludiq.GraphGroup"},{"position":{"xMin":591.0,"yMin":988.0,"xMax":1836.0,"yMax":1458.0},"label":"W","comment":null,"color":{"r":0.0,"g":0.0,"b":0.0,"a":1.0},"guid":"baf7f779-fca9-41e3-895f-ea4fd82f92c9","$version":"A","$type":"Ludiq.GraphGroup"},{"position":{"xMin":-731.0,"yMin":-231.0,"xMax":501.0,"yMax":278.0},"label":"A","comment":null,"color":{"r":0.0,"g":0.0,"b":0.0,"a":1.0},"guid":"3d1ee904-83a3-4a10-a0c6-12d6ac038c4c","$version":"A","$type":"Ludiq.GraphGroup"},{"position":{"xMin":1894.0,"yMin":1167.0,"xMax":3139.0,"yMax":1637.0},"label":"Space","comment":null,"color":{"r":0.0,"g":0.0,"b":0.0,"a":1.0},"guid":"4038b7d7-7c80-45d9-9aee-9e5b11e2fcf0","$version":"A","$type":"Ludiq.GraphGroup"}],"$version":"A"}}'
    _objectReferences: []
